{
  "auth" : "CPAN:lembark",
  "authors" : [
    "lembark"
  ],
  "build-depends" : [ ],
  "depends" : [
    "FindBin"
  ],
  "description" : "Locate [sub]dirs above a given starting point.",
  "license" : "Artistic-2.0",
  "name" : "FileSystem::Parent",
  "perl" : "6.d",
  "provides" : {
    "FileSystem::Parent" : "lib/FileSystem/Parent.rakumod"
  },
  "resources" : [
    "pod/FileSystem/Parent.rakudoc"
  ],
  "source-url" : "git@gitlab.com:lembark/raku-filesystem-parent.git",
  "tags" : [ ],
  "test-depends" : [ ],
  "version" : "0.4.3"
}
